업무 자동화를 위한 R 더하기
…
---

## [tqk][tqk] 패키지 사용법

```
## # A tibble: 244 x 8
##    date         open   high    low  close volume adjusted comp      
##    <date>      <dbl>  <dbl>  <dbl>  <dbl>  <int>    <dbl> <chr>     
##  1 2018-01-02 150500 153000 149000 149500 731763   149500 현대자동차
##  2 2018-01-03 149000 151000 149000 150500 450874   150500 현대자동차
##  3 2018-01-04 150500 151000 146000 146500 931558   146500 현대자동차
##  4 2018-01-05 146000 149000 145500 149000 463695   149000 현대자동차
##  5 2018-01-08 148500 151000 147500 151000 482619   151000 현대자동차
##  6 2018-01-09 151000 152500 149500 152500 465845   152500 현대자동차
##  7 2018-01-10 152500 158000 152000 155500 793679   155500 현대자동차
##  8 2018-01-11 156000 156500 152500 155000 476891   155000 현대자동차
##  9 2018-01-12 153500 156000 153500 154000 424738   154000 현대자동차
## 10 2018-01-15 154000 155000 151000 155000 315592   155000 현대자동차
## # ... with 234 more rows
```

---

## 연습문제 

- 앞서 만든 `hdcm` 데이터는 long form 인가요 wide form 인가요?

- `hdcm` 데이터를 `gather()` 함수를 이용해서 아래와 같이 long form 으로 바꾸어 보세요.

```
## # A tibble: 1,464 x 4
##    date       comp       type   price
##    <date>     <chr>      <chr>  <dbl>
##  1 2018-01-02 현대자동차 open  150500
##  2 2018-01-03 현대자동차 open  149000
##  3 2018-01-04 현대자동차 open  150500
##  4 2018-01-05 현대자동차 open  146000
##  5 2018-01-08 현대자동차 open  148500
##  6 2018-01-09 현대자동차 open  151000
##  7 2018-01-10 현대자동차 open  152500
##  8 2018-01-11 현대자동차 open  156000
##  9 2018-01-12 현대자동차 open  153500
## 10 2018-01-15 현대자동차 open  154000
## # ... with 1,454 more rows
```
…
---

## 실습 데이터 설치

```r
remotes::install_github("mrchypark/krwifi")
```

```r
library(krwifi)
wifi
```

```
## # A tibble: 21,473 x 17
##    설치장소명 설치장소상세 설치시도명 설치시군구명 설치시설구분
##    <chr>      <chr>        <chr>      <chr>        <chr>       
##  1 청송군청   민원실       경상북도   청송군       관공서      
##  2 청송군농업기술센터~ "\"1층, 2층, ~ 경상북도   청송군       관공서      
##  3 청송읍사무소~ 민원실       경상북도   청송군       관공서      
##  4 부동면사무소~ 민원실       경상북도   청송군       관공서      
##  5 부남면사무소~ 민원실       경상북도   청송군       관공서      
##  6 현동면사무소~ 민원실       경상북도   청송군       관공서      
##  7 현서면사무소~ 민원실       경상북도   청송군       관공서      
##  8 안덕면사무소~ 민원실       경상북도   청송군       관공서      
##  9 파천면사무소~ 민원실       경상북도   청송군       관공서      
## 10 진보면사무소~ 민원실       경상북도   청송군       관공서      
## # ... with 21,463 more rows, and 12 more variables: 서비스제공사명 <chr>,
## #   와이파이SSID <chr>, 설치년월 <chr>, 소재지도로명주소 <chr>,
## #   소재지지번주소 <chr>, 관리기관명 <chr>, 관리기관전화번호 <chr>,
## #   위도 <chr>, 경도 <chr>, 데이터기준일자 <chr>, 제공기관코드 <chr>,
## #   제공기관명 <chr>
```
…
---

## filter()함수와 함께 사용하기

```r
wifi %>% 
  filter(str_detect(소재지도로명주소, "군"))
```

```
## # A tibble: 3,866 x 17
##    설치장소명 설치장소상세 설치시도명 설치시군구명 설치시설구분
##    <chr>      <chr>        <chr>      <chr>        <chr>       
##  1 청송군청   민원실       경상북도   청송군       관공서      
##  2 청송군농업기술센터~ "\"1층, 2층, ~ 경상북도   청송군       관공서      
##  3 청송읍사무소~ 민원실       경상북도   청송군       관공서      
##  4 부동면사무소~ 민원실       경상북도   청송군       관공서      
##  5 부남면사무소~ 민원실       경상북도   청송군       관공서      
##  6 현동면사무소~ 민원실       경상북도   청송군       관공서      
##  7 현서면사무소~ 민원실       경상북도   청송군       관공서      
##  8 안덕면사무소~ 민원실       경상북도   청송군       관공서      
##  9 파천면사무소~ 민원실       경상북도   청송군       관공서      
## 10 진보면사무소~ 민원실       경상북도   청송군       관공서      
## # ... with 3,856 more rows, and 12 more variables: 서비스제공사명 <chr>,
## #   와이파이SSID <chr>, 설치년월 <chr>, 소재지도로명주소 <chr>,
## #   소재지지번주소 <chr>, 관리기관명 <chr>, 관리기관전화번호 <chr>,
## #   위도 <chr>, 경도 <chr>, 데이터기준일자 <chr>, 제공기관코드 <chr>,
## #   제공기관명 <chr>
```

---

## filter()함수와 함께 사용하기

```r
wifi %>% 
  filter(str_starts(설치장소상세 , "민원")) %>% 
  distinct(설치장소상세)
```

```
## # A tibble: 74 x 1
##    설치장소상세         
##    <chr>                
##  1 민원실               
##  2 민원실 에어컨 위     
##  3 민원실 책상 상단 벽면
##  4 민원 대기실          
##  5 민원실 등            
##  6 민원실(실내)         
##  7 민원실내             
##  8 민원실 및 휴게실 내  
##  9 민원방문실           
## 10 민원청사 2층         
## # ... with 64 more rows
```

---

## filter()함수와 함께 사용하기

```r
wifi %>% 
  filter(str_starts(설치장소상세 , "민원")) %>% 
  count(설치장소상세, sort = T)
```

```
## # A tibble: 74 x 2
##    설치장소상세                                  n
##    <chr>                                     <int>
##  1 민원실                                     2636
##  2 민원방문실                                   66
##  3 민원실 내부                                  19
##  4 민원실(실내)                                 16
##  5 민원실(1층)                                  15
##  6 민원대앞                                     12
##  7 민원실+2층 복도(갤러리쉼터,전산교육장 등)    10
##  8 민원실내                                      9
##  9 민원 대기실                                   4
## 10 민원실 천장                                   4
## # ... with 64 more rows
```
…
